<?xml version="1.0" encoding="utf-8"?>
<!-- Generator: Adobe Illustrator 26.3.1, SVG Export Plug-In . SVG Version: 6.00 Build 0)  -->
<svg version="1.1"
	 id="svg8" xmlns:sodipodi="http://sodipodi.sourceforge.net/DTD/sodipodi-0.dtd" xmlns:inkscape="http://www.inkscape.org/namespaces/inkscape" sodipodi:docname="Logo SNCF Gares &amp; Connexions - 2020.svg" xmlns:cc="http://creativecommons.org/ns#" xmlns:svg="http://www.w3.org/2000/svg" xmlns:rdf="http://www.w3.org/1999/02/22-rdf-syntax-ns#" xmlns:dc="http://purl.org/dc/elements/1.1/"
	 xmlns="http://www.w3.org/2000/svg" xmlns:xlink="http://www.w3.org/1999/xlink" x="0px" y="0px" viewBox="0 0 525 433.3"
	 style="enable-background:new 0 0 525 433.3;" xml:space="preserve">
<sodipodi:namedview  bordercolor="#666666" borderopacity="1.0" id="base" inkscape:current-layer="layer1" inkscape:cx="235.26345" inkscape:cy="174.28097" inkscape:document-rotation="0" inkscape:document-units="mm" inkscape:pageopacity="0.0" inkscape:pageshadow="2" inkscape:window-height="780" inkscape:window-maximized="0" inkscape:window-width="1434" inkscape:window-x="0" inkscape:window-y="23" inkscape:zoom="0.49497475" pagecolor="#ffffff" showgrid="false">
	</sodipodi:namedview>
<g id="layer1" transform="translate(115.54234,-64.382193)" inkscape:label="Calque 1" inkscape:groupmode="layer">
	<g id="g1003" transform="matrix(1.7790139,0,0,1.7790139,90.009087,-50.15462)">
		<path id="path953" d="M-83,288.3l3.3,3.5h-4l-1.2-1.4c-0.6,0.6-1.3,1.1-2,1.4s-1.5,0.4-2.4,0.4c-0.7,0-1.3-0.1-1.9-0.3
			c-0.6-0.2-1.2-0.5-1.7-0.8c-0.5-0.4-0.9-0.8-1.2-1.4c-0.3-0.6-0.4-1.2-0.4-1.9c0-0.5,0.1-0.9,0.2-1.3c0.2-0.4,0.4-0.8,0.7-1.2
			c0.3-0.3,0.6-0.6,1-0.9s0.8-0.5,1.2-0.6c-0.2-0.3-0.5-0.5-0.7-0.8c-0.2-0.2-0.4-0.5-0.5-0.8s-0.3-0.5-0.3-0.8
			c-0.1-0.3-0.1-0.6-0.1-1c0-0.7,0.1-1.2,0.4-1.7s0.6-0.9,1-1.2c0.4-0.3,0.9-0.5,1.5-0.7c0.6-0.1,1.1-0.2,1.7-0.2s1.1,0.1,1.6,0.2
			s1,0.4,1.4,0.7c0.4,0.3,0.7,0.7,1,1.1c0.2,0.4,0.4,1,0.4,1.6c0,0.4-0.1,0.9-0.2,1.2c-0.1,0.4-0.3,0.7-0.6,1.1
			c-0.3,0.3-0.5,0.6-0.9,0.9c-0.3,0.3-0.7,0.5-1,0.7l1.9,2l1.4-2h3.6L-83,288.3z M-88.5,279.1c-0.4,0-0.7,0.1-1,0.4s-0.4,0.6-0.4,1
			c0,0.2,0,0.4,0.1,0.5c0.1,0.2,0.2,0.3,0.3,0.5c0.1,0.2,0.3,0.3,0.4,0.4c0.2,0.1,0.3,0.3,0.4,0.4c0.2-0.1,0.3-0.2,0.5-0.3
			c0.2-0.1,0.4-0.3,0.5-0.4c0.2-0.2,0.3-0.3,0.4-0.5s0.2-0.4,0.2-0.6c0-0.4-0.1-0.8-0.4-1C-87.8,279.2-88.1,279.1-88.5,279.1
			L-88.5,279.1z M-89.5,285.5c-0.2,0.1-0.4,0.3-0.6,0.4s-0.4,0.3-0.5,0.4c-0.2,0.2-0.3,0.3-0.4,0.5s-0.1,0.5-0.1,0.7
			s0.1,0.5,0.2,0.8c0.1,0.2,0.3,0.4,0.4,0.6c0.2,0.2,0.4,0.3,0.6,0.4c0.3,0.1,0.5,0.1,0.8,0.1c0.5,0,0.9-0.1,1.3-0.3
			c0.4-0.2,0.7-0.5,1.1-0.8L-89.5,285.5z"/>
		<path id="path955" d="M-54.7,280.8c-0.3-0.4-0.7-0.7-1.2-0.9c-0.5-0.2-1-0.3-1.6-0.3s-1.2,0.1-1.7,0.4c-0.5,0.2-1,0.6-1.4,1
			s-0.7,0.9-0.9,1.5s-0.3,1.2-0.3,1.9c0,0.7,0.1,1.3,0.3,1.9s0.5,1.1,0.9,1.5s0.8,0.7,1.3,1c0.5,0.2,1.1,0.4,1.7,0.4
			c0.7,0,1.3-0.1,1.8-0.4s0.9-0.7,1.3-1.2l2.7,2c-0.6,0.9-1.4,1.5-2.4,1.9s-1.9,0.6-3,0.6c-1.2,0-2.2-0.2-3.2-0.5
			c-1-0.4-1.8-0.9-2.5-1.5c-0.7-0.7-1.3-1.5-1.7-2.5s-0.6-2-0.6-3.2s0.2-2.3,0.6-3.2c0.4-1,1-1.8,1.7-2.4c0.7-0.7,1.6-1.2,2.5-1.6
			c1-0.4,2-0.5,3.2-0.5c0.4,0,0.8,0,1.3,0.1s0.9,0.2,1.3,0.4c0.4,0.2,0.9,0.4,1.3,0.7c0.4,0.3,0.8,0.6,1.1,1L-54.7,280.8z"/>
		<path id="path957" d="M-47.1,284.4c0-1.2,0.2-2.3,0.6-3.2c0.4-1,1-1.8,1.7-2.4c0.7-0.7,1.6-1.2,2.5-1.6c1-0.4,2-0.5,3.2-0.5
			s2.2,0.2,3.2,0.5c1,0.4,1.8,0.9,2.5,1.6s1.3,1.5,1.7,2.4c0.4,1,0.6,2,0.6,3.2s-0.2,2.3-0.6,3.2c-0.4,1-0.9,1.8-1.7,2.5
			c-0.7,0.7-1.6,1.2-2.5,1.5c-1,0.4-2,0.5-3.2,0.5s-2.2-0.2-3.2-0.5c-1-0.4-1.8-0.9-2.5-1.5c-0.7-0.7-1.3-1.5-1.7-2.5
			S-47.1,285.6-47.1,284.4z M-43.7,284.4c0,0.7,0.1,1.3,0.3,1.9s0.5,1.1,0.9,1.5s0.9,0.7,1.4,1c0.6,0.2,1.2,0.4,1.9,0.4
			s1.3-0.1,1.9-0.4c0.6-0.2,1.1-0.6,1.5-1s0.7-0.9,0.9-1.5s0.3-1.2,0.3-1.9c0-0.7-0.1-1.3-0.3-1.9s-0.5-1.1-0.9-1.5s-0.9-0.8-1.5-1
			s-1.2-0.4-1.9-0.4s-1.3,0.1-1.9,0.4c-0.6,0.2-1,0.6-1.4,1s-0.7,0.9-0.9,1.5C-43.6,283.1-43.7,283.7-43.7,284.4z"/>
		<path id="path959" d="M-25.2,277h4.4l6.3,10.3l0,0V277h3.3v14.8h-4.3l-6.5-10.5l0,0v10.5h-3.3L-25.2,277L-25.2,277z"/>
		<path id="path961" d="M-4.4,277H0l6.3,10.3l0,0V277h3.3v14.8H5.3l-6.5-10.5l0,0v10.5h-3.3L-4.4,277L-4.4,277z"/>
		<path id="path963" d="M16.5,277h10v3h-6.8v2.8h6.4v3h-6.4v3h7.2v3H16.5V277z"/>
		<path id="path965" d="M37,284l-4.9-7.1h4.1l3.2,5.2l3-5.2h3.9l-4.8,7l5.3,7.8h-4.1l-3.6-6l-3.5,6h-3.9L37,284z"/>
		<path id="path967" d="M52.1,277h3.3v14.8h-3.3V277z"/>
		<path id="path969" d="M61.3,284.4c0-1.2,0.2-2.3,0.6-3.2c0.4-1,1-1.8,1.7-2.4c0.7-0.7,1.6-1.2,2.5-1.6c1-0.4,2-0.5,3.2-0.5
			s2.2,0.2,3.2,0.5c1,0.4,1.8,0.9,2.5,1.6s1.3,1.5,1.7,2.4c0.4,1,0.6,2,0.6,3.2s-0.2,2.3-0.6,3.2c-0.4,1-0.9,1.8-1.7,2.5
			c-0.7,0.7-1.6,1.2-2.5,1.5c-1,0.4-2,0.5-3.2,0.5s-2.2-0.2-3.2-0.5c-1-0.4-1.8-0.9-2.5-1.5c-0.7-0.7-1.3-1.5-1.7-2.5
			C61.5,286.6,61.3,285.6,61.3,284.4z M64.7,284.4c0,0.7,0.1,1.3,0.3,1.9c0.2,0.6,0.5,1.1,0.9,1.5s0.9,0.7,1.4,1
			c0.6,0.2,1.2,0.4,1.9,0.4s1.3-0.1,1.9-0.4c0.6-0.2,1.1-0.6,1.5-1s0.7-0.9,0.9-1.5c0.2-0.6,0.3-1.2,0.3-1.9c0-0.7-0.1-1.3-0.3-1.9
			c-0.2-0.6-0.5-1.1-0.9-1.5s-0.9-0.8-1.5-1s-1.2-0.4-1.9-0.4s-1.3,0.1-1.9,0.4c-0.6,0.2-1,0.6-1.4,1s-0.7,0.9-0.9,1.5
			C64.8,283.1,64.7,283.7,64.7,284.4z"/>
		<path id="path971" d="M83.2,277h4.4l6.3,10.3l0,0V277h3.3v14.8H93l-6.5-10.5l0,0v10.5h-3.3V277z"/>
		<path id="path973" d="M111.3,280.6c-0.3-0.3-0.6-0.6-1.1-0.7c-0.4-0.2-0.9-0.3-1.3-0.3c-0.2,0-0.5,0-0.7,0.1
			c-0.3,0.1-0.5,0.1-0.7,0.3c-0.2,0.1-0.4,0.3-0.5,0.5s-0.2,0.4-0.2,0.7c0,0.4,0.2,0.8,0.5,1s0.8,0.4,1.3,0.6s1.1,0.3,1.7,0.5
			s1.1,0.4,1.6,0.7c0.5,0.3,0.9,0.7,1.3,1.2c0.3,0.5,0.5,1.2,0.5,2.1c0,0.8-0.2,1.5-0.5,2.2c-0.3,0.6-0.7,1.1-1.3,1.5
			c-0.5,0.4-1.1,0.7-1.8,0.9c-0.7,0.2-1.4,0.3-2.2,0.3c-1,0-1.9-0.1-2.7-0.4c-0.8-0.3-1.6-0.8-2.3-1.4l2.3-2.5
			c0.3,0.4,0.8,0.8,1.3,1s1,0.4,1.6,0.4c0.3,0,0.5,0,0.8-0.1s0.5-0.2,0.7-0.3c0.2-0.1,0.4-0.3,0.5-0.5s0.2-0.4,0.2-0.7
			c0-0.4-0.2-0.8-0.5-1c-0.3-0.3-0.8-0.5-1.3-0.7s-1.1-0.4-1.7-0.5s-1.2-0.4-1.7-0.7c-0.5-0.3-0.9-0.7-1.3-1.2
			c-0.3-0.5-0.5-1.2-0.5-2s0.2-1.5,0.5-2.1s0.7-1.1,1.3-1.5c0.5-0.4,1.1-0.7,1.8-0.9c0.7-0.2,1.4-0.3,2.1-0.3c0.8,0,1.6,0.1,2.4,0.4
			c0.8,0.2,1.5,0.6,2.1,1.2L111.3,280.6z"/>
	</g>
	<g id="g1010" transform="matrix(1.7790139,0,0,1.7790139,90.009087,-50.15462)">
		<path id="path942" d="M-61.3,263.4c-2.4,1.2-4.9,2.1-7.4,2.7c-2.6,0.6-5.2,0.8-7.9,0.8c-2.9,0-5.5-0.4-7.9-1.3s-4.5-2.2-6.3-3.8
			c-1.8-1.7-3.1-3.7-4.1-6.1c-1-2.4-1.4-5-1.4-8s0.5-5.6,1.4-8c1-2.4,2.4-4.4,4.1-6.1c1.8-1.7,3.8-3,6.3-3.9
			c2.4-0.9,5.1-1.3,7.9-1.3c2.9,0,5.6,0.4,8.1,1.1c2.5,0.7,4.7,1.9,6.5,3.6l-5.7,6.2c-1.1-1.1-2.3-2-3.7-2.6
			c-1.4-0.6-3.1-0.9-5.2-0.9c-1.7,0-3.3,0.3-4.7,0.9c-1.4,0.6-2.6,1.4-3.6,2.5c-1,1-1.8,2.3-2.3,3.7s-0.8,3-0.8,4.7s0.3,3.3,0.8,4.8
			c0.6,1.4,1.3,2.7,2.3,3.7c1,1,2.2,1.8,3.6,2.4s3,0.9,4.7,0.9c1.8,0,3.3-0.2,4.6-0.6c1.3-0.4,2.3-0.8,3.1-1.2v-5.9h-6.6v-7.4h14.3
			L-61.3,263.4z"/>
		<path id="path944" d="M-30,229.4h6.7L-7.4,266h-9.1l-3.2-7.8h-14.2L-37,266h-8.9L-30,229.4z M-26.9,240.1l-4.4,11.4h8.9
			L-26.9,240.1z"/>
		<path id="path946" d="M8.5,229.4h14.2c1.9,0,3.6,0.2,5.3,0.6c1.7,0.3,3.2,0.9,4.4,1.8c1.3,0.8,2.3,2,3,3.4
			c0.8,1.4,1.1,3.2,1.1,5.3c0,2.6-0.7,4.8-2,6.6s-3.3,2.9-5.9,3.4l9.3,15.5h-9.7l-7.7-14.6h-4V266h-8V229.4z M16.5,244.6h4.8
			c0.7,0,1.5,0,2.3-0.1s1.6-0.2,2.2-0.5c0.7-0.3,1.2-0.7,1.6-1.2c0.4-0.6,0.7-1.3,0.7-2.3c0-0.9-0.2-1.7-0.6-2.2
			c-0.4-0.6-0.9-1-1.4-1.2c-0.6-0.3-1.3-0.5-2-0.6c-0.8-0.1-1.5-0.2-2.2-0.2h-5.3L16.5,244.6L16.5,244.6z"/>
		<path id="path948" d="M54.5,229.4h24.9v7.4H62.6v6.8h15.9v7.4H62.6v7.4h17.7v7.4H54.5V229.4z"/>
		<path id="path950" d="M117.2,238.3c-0.7-0.8-1.6-1.4-2.7-1.8c-1.1-0.4-2.2-0.6-3.2-0.6c-0.6,0-1.2,0.1-1.8,0.2
			c-0.6,0.1-1.2,0.4-1.8,0.7c-0.6,0.3-1,0.7-1.3,1.1c-0.3,0.5-0.5,1.1-0.5,1.8c0,1.1,0.4,1.9,1.2,2.5c0.8,0.6,1.9,1.1,3.1,1.5
			c1.3,0.4,2.6,0.8,4.1,1.2c1.4,0.4,2.8,1,4,1.8c1.3,0.8,2.3,1.8,3.2,3.1c0.8,1.3,1.2,3,1.2,5.1c0,2-0.4,3.8-1.1,5.3
			c-0.8,1.5-1.8,2.8-3.1,3.8c-1.3,1-2.8,1.7-4.5,2.2s-3.5,0.7-5.4,0.7c-2.4,0-4.6-0.4-6.6-1.1s-3.9-1.9-5.7-3.5l5.7-6.3
			c0.8,1.1,1.9,2,3.1,2.6c1.3,0.6,2.6,0.9,3.9,0.9c0.7,0,1.3-0.1,2-0.2c0.7-0.2,1.3-0.4,1.8-0.7c0.6-0.3,1-0.7,1.3-1.2
			s0.5-1.1,0.5-1.7c0-1.1-0.4-2-1.3-2.6c-0.8-0.7-1.9-1.2-3.2-1.7c-1.3-0.4-2.7-0.9-4.1-1.3c-1.5-0.4-2.9-1.1-4.1-1.8
			c-1.3-0.8-2.3-1.8-3.2-3c-0.8-1.2-1.2-2.9-1.2-4.9s0.4-3.7,1.1-5.2c0.8-1.5,1.8-2.7,3.1-3.7c1.3-1,2.8-1.7,4.5-2.2
			s3.4-0.8,5.2-0.8c2.1,0,4.1,0.3,6,0.9c1.9,0.6,3.7,1.6,5.2,2.9L117.2,238.3z"/>
	</g>
	<path d="M371.2,187.8c-130-83.2-324.4-95.3-412.8-95.3c-12.7,0-23.1,0.2-30.9,0.5c-5,0.2-8.4,2.5-8.4,7.5v223.6
		c0,3.9,2.8,7.4,7.1,7.4h399.2c3.6,0,6.5-0.3,8.1-5c0,0,40.5-126.6,41.2-128.9C376.2,192.9,375.3,190.4,371.2,187.8z M43,275.6
		c-7.8,16.9-28,24.7-58.4,23.9c-16.5-0.4-35.4-6.6-44.9-10.7l7.4-16.1c12.8,6.2,28.8,9.9,41.6,10.3c14.8,0.4,24.7-2.9,28-9.5
		c4.1-8.6-7.4-15.2-21.8-22.2c-18.1-8.6-39.1-18.9-31.7-37.5c6.2-15.2,30.5-22.6,57.6-22.2c8.2,0,13.2,0.8,20.2,2.1L36,208.9
		c-5.8-1.2-10.3-2.1-16.9-2.1c-13.2,0-28,3.3-30.9,11.5c-2.5,7,7.4,10.7,22.2,17.7C29,245.2,52.4,255.9,43,275.6z M335.2,209.3h-58
		l-8.2,26.3h49l-4.9,15.6h-49l-12.8,39.9c-4.9,2.5-24.3,8.2-46.1,8.2c-33.7,0-57.2-16.1-60.9-39.9c0-0.4-0.4-0.4-0.8-0.4
		s-0.8,0-0.8,0.4l-11.9,37.9h-24.7c-7.8-30-22.6-58.4-37.9-79.8c0,0-14.8,45.7-14.8,46.1s-0.4,0.4-0.8,0.4c-0.4,0-0.8,0-0.8-0.4
		c-2.5-6.6-4.9-11.1-13.6-17.7l17.3-53.1h23c18.5,23.5,33.7,51.9,41.2,73.3l22.6-72.8h21.4l-7.4,22.6c0,0.4,0.4,0.4,0.8,0.4
		c0.4,0,0.8,0,1.2-0.4c14.4-15.6,36.6-24.7,62.6-24.7c8.2,0,16.9,0.4,23.9,1.6l-5.8,16.9c-5.8-0.8-11.9-1.2-18.1-1.2
		c-28.8,0-50.6,14.4-53.9,36.6c-1.2,9.5,0.8,17.7,6.6,24.3c7.4,8.6,20.6,12.3,37,12.3c7.4,0,14.8-0.4,20.6-2.1l27.6-86.4h81.5
		L335.2,209.3z"/>
</g>
</svg>
