<svg version="1.1" xmlns="http://www.w3.org/2000/svg" xmlns:xlink="http://www.w3.org/1999/xlink" x="0px" y="0px"
	 viewBox="0 0 20 20" style="enable-background:new 0 0 20 20;" xml:space="preserve">
<polyline class="st0" points="13.3,17.8 5.2,9.8 13.3,1.8 " stroke="currentColor" fill="none" stroke-width="1px"/>
</svg>
