<svg version="1.1" xmlns="http://www.w3.org/2000/svg" xmlns:xlink="http://www.w3.org/1999/xlink" x="0px" y="0px"
	 viewBox="0 0 20 20" style="enable-background:new 0 0 20 20;" xml:space="preserve">
	 <g  stroke="currentColor" fill="none" stroke-width="1px">
		<polyline points="5.9,6 2.1,9.8 5.9,13.6 "/>
		<line x1="2.4" y1="9.8" x2="17.9" y2="9.8"/>
	 </g>
</svg>
